5toSemestre/IDL/TPEntregables/Entregable4/TPEntregable4/simulation/qsim/Proyecto4.msim.vcd
$comment
	File created using the following command:
		vcd file Proyecto4.msim.vcd -direction
$end
$date
	Mon Jul 03 11:42:34 2023
$end
$version
	ModelSim Version 10.1d
$end
$timescale
	1ps
$end
$scope module MaquinaMoore_vlg_vec_tst $end
$var reg 1 ! A $end
$var reg 1 " B $end
$var reg 1 # CLK $end
$var wire 1 $ L [8] $end
$var wire 1 % L [7] $end
$var wire 1 & L [6] $end
$var wire 1 ' L [5] $end
$var wire 1 ( L [4] $end
$var wire 1 ) L [3] $end
$var wire 1 * L [2] $end
$var wire 1 + L [1] $end
$var wire 1 , L [0] $end
$var wire 1 - sampler $end
$scope module i1 $end
$var wire 1 . gnd $end
$var wire 1 / vcc $end
$var wire 1 0 unknown $end
$var tri1 1 1 devclrn $end
$var tri1 1 2 devpor $end
$var tri1 1 3 devoe $end
$var wire 1 4 L[8]~output_o $end
$var wire 1 5 L[7]~output_o $end
$var wire 1 6 L[6]~output_o $end
$var wire 1 7 L[5]~output_o $end
$var wire 1 8 L[4]~output_o $end
$var wire 1 9 L[3]~output_o $end
$var wire 1 : L[2]~output_o $end
$var wire 1 ; L[1]~output_o $end
$var wire 1 < L[0]~output_o $end
$var wire 1 = CLK~input_o $end
$var wire 1 > CLK~inputclkctrl_outclk $end
$var wire 1 ? B~input_o $end
$var wire 1 @ inst4|inst2~q $end
$var wire 1 A A~input_o $end
$var wire 1 B inst4|inst~q $end
$var wire 1 C inst|inst3|inst3~0_combout $end
$var wire 1 D inst|inst3|inst3~1_combout $end
$var wire 1 E inst4|inst3~q $end
$var wire 1 F inst|inst4|inst~0_combout $end
$var wire 1 G inst|inst4|inst~combout $end
$var wire 1 H inst4|inst4~q $end
$var wire 1 I inst2|inst|inst~0_combout $end
$var wire 1 J inst2|inst4|inst~0_combout $end
$var wire 1 K inst2|inst3|inst~0_combout $end
$var wire 1 L inst2|inst6|inst~0_combout $end
$var wire 1 M inst2|inst9|inst~0_combout $end
$var wire 1 N inst2|inst11|inst~0_combout $end
$var wire 1 O inst2|inst13|inst8~0_combout $end
$var wire 1 P inst2|inst11|inst~1_combout $end
$upscope $end
$upscope $end
$enddefinitions $end
#0
$dumpvars
1!
0"
0#
1,
1+
1*
1)
1(
1'
1&
1%
1$
x-
0.
1/
x0
11
12
13
14
15
16
17
18
19
1:
1;
1<
0=
0>
0?
0@
1A
0B
0C
0D
0E
0F
0G
0H
0I
0J
0K
0L
0M
0N
0O
0P
$end
#30000
1#
1=
1>
0-
1B
1O
1N
1L
1I
1F
1C
1G
0;
0:
07
04
0+
0*
0'
0$
#60000
0#
0=
0>
1-
#90000
1#
1=
1>
0-
1H
1P
0N
0L
1J
0I
0G
1D
08
0(
0<
1:
17
05
14
0,
1*
1'
0%
1$
#120000
0#
0=
0>
1-
#150000
1#
1=
1>
0-
0H
1E
0O
1N
1M
1K
0J
0D
18
1(
1;
0:
09
06
15
1+
0*
0)
0&
1%
#180000
0#
0=
0>
1-
#210000
1#
1=
1>
0-
0E
0P
1O
0M
1L
0K
1I
1G
1<
0;
19
07
16
04
1,
0+
1)
0'
1&
0$
#240000
0#
0=
0>
1-
#270000
1#
1=
1>
0-
1H
1P
0N
0L
1J
0I
0G
1D
08
0(
0<
1:
17
05
14
0,
1*
1'
0%
1$
#300000
0#
0=
0>
1-
#330000
1#
1=
1>
0-
0H
1E
0O
1N
1M
1K
0J
0D
18
1(
1;
0:
09
06
15
1+
0*
0)
0&
1%
#360000
0#
0=
0>
1-
#390000
1#
1=
1>
0-
0E
0P
1O
0M
1L
0K
1I
1G
1<
0;
19
07
16
04
1,
0+
1)
0'
1&
0$
#420000
0#
0=
0>
1-
#450000
1#
1=
1>
0-
1H
1P
0N
0L
1J
0I
0G
1D
08
0(
0<
1:
17
05
14
0,
1*
1'
0%
1$
#480000
0#
0=
0>
1-
#510000
1#
1=
1>
0-
0H
1E
0O
1N
1M
1K
0J
0D
18
1(
1;
0:
09
06
15
1+
0*
0)
0&
1%
#540000
0#
0=
0>
1-
#570000
1#
1=
1>
0-
0E
0P
1O
0M
1L
0K
1I
1G
1<
0;
19
07
16
04
1,
0+
1)
0'
1&
0$
#600000
0#
0=
0>
1-
#630000
1#
1=
1>
0-
1H
1P
0N
0L
1J
0I
0G
1D
08
0(
0<
1:
17
05
14
0,
1*
1'
0%
1$
#660000
0#
0=
0>
1-
#690000
1#
1=
1>
0-
0H
1E
0O
1N
1M
1K
0J
0D
18
1(
1;
0:
09
06
15
1+
0*
0)
0&
1%
#720000
0#
0=
0>
1-
#750000
1#
1=
1>
0-
0E
0P
1O
0M
1L
0K
1I
1G
1<
0;
19
07
16
04
1,
0+
1)
0'
1&
0$
#780000
0#
0=
0>
1-
#810000
1#
1=
1>
0-
1H
1P
0N
0L
1J
0I
0G
1D
08
0(
0<
1:
17
05
14
0,
1*
1'
0%
1$
#840000
0#
0=
0>
1-
#870000
1#
1=
1>
0-
0H
1E
0O
1N
1M
1K
0J
0D
18
1(
1;
0:
09
06
15
1+
0*
0)
0&
1%
#900000
0#
0=
0>
1-
#930000
1#
1=
1>
0-
0E
0P
1O
0M
1L
0K
1I
1G
1<
0;
19
07
16
04
1,
0+
1)
0'
1&
0$
#960000
0#
0=
0>
1-
#990000
1#
1=
1>
0-
1H
1P
0N
0L
1J
0I
0G
1D
08
0(
0<
1:
17
05
14
0,
1*
1'
0%
1$
