5toSemestre/IDL/Quartus/simulation/qsim/DetMagRel.msim.vcd
$comment
	File created using the following command:
		vcd file DetMagRel.msim.vcd -direction
$end
$date
	Mon Apr 17 11:19:49 2023
$end
$version
	ModelSim Version 10.1d
$end
$timescale
	1ps
$end
$scope module DetMagRel3bit_vlg_vec_tst $end
$var reg 1 ! x0 $end
$var reg 1 " x1 $end
$var reg 1 # x2 $end
$var reg 1 $ y0 $end
$var reg 1 % y1 $end
$var reg 1 & y2 $end
$var wire 1 ' M $end
$var wire 1 ( N $end
$var wire 1 ) P $end
$var wire 1 * sampler $end
$scope module i1 $end
$var wire 1 + gnd $end
$var wire 1 , vcc $end
$var wire 1 - unknown $end
$var tri1 1 . devclrn $end
$var tri1 1 / devpor $end
$var tri1 1 0 devoe $end
$var wire 1 1 M~output_o $end
$var wire 1 2 N~output_o $end
$var wire 1 3 P~output_o $end
$var wire 1 4 y1~input_o $end
$var wire 1 5 x1~input_o $end
$var wire 1 6 y2~input_o $end
$var wire 1 7 x2~input_o $end
$var wire 1 8 inst~0_combout $end
$var wire 1 9 x0~input_o $end
$var wire 1 : y0~input_o $end
$var wire 1 ; inst~combout $end
$var wire 1 < inst6~0_combout $end
$var wire 1 = inst6~combout $end
$var wire 1 > instNOR~combout $end
$upscope $end
$upscope $end
$enddefinitions $end
#0
$dumpvars
0!
0"
0#
0$
0%
0&
1'
0(
0)
x*
0+
1,
x-
1.
1/
10
11
02
03
04
05
06
07
18
09
0:
1;
0<
0=
1>
$end
#15000
1$
1:
0*
0>
0;
13
01
1)
0'
#30000
1%
0$
14
0:
1*
08
1>
1;
0>
03
11
0)
1'
0;
13
01
1)
0'
#45000
1$
1:
0*
#60000
1&
0%
0$
16
04
0:
1*
#75000
1$
1:
0*
#90000
1%
0$
14
0:
1*
#105000
1$
1:
0*
#120000
1!
0&
0%
0$
19
06
04
0:
1*
18
1>
1=
03
12
0)
1(
#135000
1$
1:
0*
0=
1;
02
11
0(
1'
#150000
1%
0$
14
0:
1*
08
1=
0;
0>
12
01
1(
0'
0=
13
02
1)
0(
#165000
1$
1:
0*
#180000
1&
0%
0$
16
04
0:
1*
#195000
1$
1:
0*
#210000
1%
0$
14
0:
1*
#225000
1$
1:
0*
#240000
1"
0!
0&
0%
0$
15
09
06
04
0:
1*
1<
1>
1=
03
12
0)
1(
#255000
1$
1:
0*
#270000
1%
0$
14
0:
1*
0<
18
0=
1;
02
11
0(
1'
#285000
1$
1:
0*
0>
0;
13
01
1)
0'
#300000
1&
0%
0$
16
04
0:
1*
08
1>
1;
0>
03
11
0)
1'
0;
13
01
1)
0'
#315000
1$
1:
0*
#330000
1%
0$
14
0:
1*
#345000
1$
1:
0*
#360000
1!
0&
0%
0$
19
06
04
0:
1*
1<
1>
1=
03
12
0)
1(
#375000
1$
1:
0*
#390000
1%
0$
14
0:
1*
0<
18
#405000
1$
1:
0*
0=
1;
02
11
0(
1'
#420000
1&
0%
0$
16
04
0:
1*
08
1=
0;
0>
12
01
1(
0'
0=
13
02
1)
0(
#435000
1$
1:
0*
#450000
1%
0$
14
0:
1*
#465000
1$
1:
0*
#480000
1#
0"
0!
0&
0%
0$
17
05
09
06
04
0:
1*
1<
1>
1=
03
12
0)
1(
#495000
1$
1:
0*
#510000
1%
0$
14
0:
1*
#525000
1$
1:
0*
#540000
1&
0%
0$
16
04
0:
1*
0<
18
0=
1;
02
11
0(
1'
#555000
1$
1:
0*
0>
0;
13
01
1)
0'
#570000
1%
0$
14
0:
1*
08
1>
1;
0>
03
11
0)
1'
0;
13
01
1)
0'
#585000
1$
1:
0*
#600000
1!
0&
0%
0$
19
06
04
0:
1*
1<
1>
1=
03
12
0)
1(
#615000
1$
1:
0*
#630000
1%
0$
14
0:
1*
#645000
1$
1:
0*
#660000
1&
0%
0$
16
04
0:
1*
0<
18
#675000
1$
1:
0*
0=
1;
02
11
0(
1'
#690000
1%
0$
14
0:
1*
08
1=
0;
0>
12
01
1(
0'
0=
13
02
1)
0(
#705000
1$
1:
0*
#720000
1"
0!
0&
0%
0$
15
09
06
04
0:
1*
1<
1>
1=
03
12
0)
1(
#735000
1$
1:
0*
#750000
1%
0$
14
0:
1*
#765000
1$
1:
0*
#780000
1&
0%
0$
16
04
0:
1*
#795000
1$
1:
0*
#810000
1%
0$
14
0:
1*
0<
18
0=
1;
02
11
0(
1'
#825000
1$
1:
0*
0>
0;
13
01
1)
0'
#840000
1!
0&
0%
0$
19
06
04
0:
1*
1>
1<
08
1=
03
12
0)
1(
#855000
1$
1:
0*
#870000
1%
0$
14
0:
1*
#885000
1$
1:
0*
#900000
1&
0%
0$
16
04
0:
1*
#915000
1$
1:
0*
#930000
1%
0$
14
0:
1*
0<
18
#945000
1$
1:
0*
0=
1;
02
11
0(
1'
#960000
0#
0"
0!
0&
0%
0$
07
05
09
06
04
0:
1*
#975000
1$
1:
0*
0>
0;
13
01
1)
0'
#990000
1%
0$
14
0:
1*
08
1>
1;
0>
03
11
0)
1'
0;
13
01
1)
0'
